A first tutorial for ‘gscramble’
…
First, here is a listing of the top of the Segments we
produced above.

Segments
#> # A tibble: 36 × 14
#>    chrom_f   gpp index chrom ped_sample_id samp_index gamete_index
#>    <fct>   <int> <int> <chr> <chr>              <int>        <dbl>
#>  1 12          1     1 12    5                      1            1
#>  2 17          1     1 17    5                      1            1
#>  3 18          1     1 18    5                      1            1
#>  4 12          1     1 12    5                      1            2
#>  5 17          1     1 17    5                      1            2
#>  6 18          1     1 18    5                      1            2
#>  7 12          1     1 12    6                      1            1
#>  8 17          1     1 17    6                      1            1
#>  9 18          1     1 18    6                      1            1
#> 10 12          1     1 12    6                      1            2
#> # ℹ 26 more rows
#> # ℹ 7 more variables: gamete_segments <list>, pop_origin <chr>,
#> #   rs_founder_haplo <int>, start <dbl>, end <dbl>, group_origin <chr>,
#> #   sim_level_founder_haplo <int>

The table is a little wide, so we will show the first half of the
columns and then the second half.

First half

Segments %>%
  select(gpp:pop_origin)
#> # A tibble: 36 × 8
#>      gpp index chrom ped_sample_id samp_index gamete_index gamete_segments
#>    <int> <int> <chr> <chr>              <int>        <dbl> <list>         
#>  1     1     1 12    5                      1            1 <dbl [2]>      
#>  2     1     1 17    5                      1            1 <dbl [2]>      
#>  3     1     1 18    5                      1            1 <dbl [2]>      
#>  4     1     1 12    5                      1            2 <dbl [2]>      
#>  5     1     1 17    5                      1            2 <dbl [2]>      
#>  6     1     1 18    5                      1            2 <dbl [2]>      
#>  7     1     1 12    6                      1            1 <dbl [2]>      
#>  8     1     1 17    6                      1            1 <dbl [2]>      
#>  9     1     1 18    6                      1            1 <dbl [2]>      
#> 10     1     1 12    6                      1            2 <dbl [3]>      
#> # ℹ 26 more rows
#> # ℹ 1 more variable: pop_origin <chr>

Second half

Segments %>%
  select(rs_founder_haplo:group_origin)
#> # A tibble: 36 × 4
#>    rs_founder_haplo start       end group_origin
#>               <int> <dbl>     <dbl> <chr>       
#>  1                1     0 63582536  Pop1        
#>  2                1     0 69302804  Pop1        
#>  3                2     0 61201108  Pop1        
#>  4                1     0 63582536  Pop2        
#>  5                1     0 69302804  Pop2        
#>  6                2     0 61201108  Pop2        
#>  7                4     0 63582536  Pop1        
#>  8                4     0 69302804  Pop1        
#>  9                3     0 61201108  Pop1        
#> 10                2     0 17363020. Pop1        
#> # ℹ 26 more rows
…
